{"count":10000,"next":"https://www.udemy.com/api-2.0/courses/?page=2&page_size=12","previous":null,"results":[{"_class":"course","id":473160,"title":"Web Design for Web Developers: Build Beautiful Websites!","url":"/course/web-design-secrets/","is_paid":false,"price":"Free","price_detail":null,"price_serve_tracking_id":"sb9dZ8cRRpmNbviAWfcbFw","visible_instructors":[{"_class":"user","title":"Jonas Schmedtmann","name":"Jonas","display_name":"Jonas Schmedtmann","job_title":"Web Developer, Designer, and Teacher","image_50x50":"https://img-c.udemycdn.com/user/50x50/7799204_2091_5.jpg","image_100x100":"https://img-c.udemycdn.com/user/100x100/7799204_2091_5.jpg","initials":"JS","url":"/user/jonasschmedtmann/"}],"image_125_H":"https://img-c.udemycdn.com/course/125_H/473160_d929_3.jpg","image_240x135":"https://img-c.udemycdn.com/course/240x135/473160_d929_3.jpg","is_practice_test_course":false,"image_480x270":"https://img-c.udemycdn.com/course/480x270/473160_d929_3.jpg","published_title":"web-design-secrets","tracking_id":"","predictive_score":null,"relevancy_score":null,"input_features":null,"lecture_search_result":null,"curriculum_lectures":[],"order_in_results":null,"curriculum_items":[],"headline":"Learn web design in 1 hour with 25+ simple-to-use rules and guidelines — tons of amazing web design resources included!","instructor_name":null},{"_class":"course","id":1331946,"title":"Amazon Web Services (AWS) - Zero to Hero","url":"/course/amazon-web-services-aws-v/","is_paid":false,"price":"Free","price_detail":null,"price_serve_tracking_id":"iwRbZNa1S2CXpj-qGsRdbQ","visible_instructors":[{"_class":"user","title":"BackSpace Academy","name":"BackSpace","display_name":"BackSpace Academy","job_title":"The fastest route to cloud certification.","image_50x50":"https://img-c.udemycdn.com/user/50x50/27829848_1d83.jpg","image_100x100":"https://img-c.udemycdn.com/user/100x100/27829848_1d83.jpg","initials":"BA","url":"/user/backspace-academy/"}],"image_125_H":"https://img-c.udemycdn.com/course/125_H/1331946_ed41_4.jpg","image_240x135":"https://img-c.udemycdn.com/course/240x135/1331946_ed41_4.jpg","is_practice_test_course":false,"image_480x270":"https://img-c.udemycdn.com/course/480x270/1331946_ed41_4.jpg","published_title":"amazon-web-services-aws-v","tracking_id":"","predictive_score":null,"relevancy_score":null,"input_features":null,"lecture_search_result":null,"curriculum_lectures":[],"order_in_results":null,"curriculum_items":[],"headline":"Beginners, Zero to Hero. AWS EC2 web server, NodeJS Server, AWS RDS database server, S3, SES & CloudWatch. FREE","instructor_name":null},{"_class":"course","id":433798,"title":"Introduction To Python Programming","url":"/course/pythonforbeginnersintro/","is_paid":false,"price":"Free","price_detail":null,"price_serve_tracking_id":"43HK9T1-Q9iZ59bjMfVVGQ","visible_instructors":[{"_class":"user","title":"Avinash Jain","name":"Avinash","display_name":"Avinash Jain","job_title":"CEO of TheCodex.me - Teaching 500,000+ Students how to code","image_50x50":"https://img-c.udemycdn.com/user/50x50/10260436_946b_6.jpg","image_100x100":"https://img-c.udemycdn.com/user/100x100/10260436_946b_6.jpg","initials":"AJ","url":"/user/avinashjain5/"},{"_class":"user","title":"The Codex","name":"The","display_name":"The Codex","job_title":"Teaching Python through Projects","image_50x50":"https://img-c.udemycdn.com/user/50x50/52310762_220a.jpg","image_100x100":"https://img-c.udemycdn.com/user/100x100/52310762_220a.jpg","initials":"TC","url":"/user/thecodex/"}],"image_125_H":"https://img-c.udemycdn.com/course/125_H/433798_1de9_4.jpg","image_240x135":"https://img-c.udemycdn.com/course/240x135/433798_1de9_4.jpg","is_practice_test_course":false,"image_480x270":"https://img-c.udemycdn.com/course/480x270/433798_1de9_4.jpg","published_title":"pythonforbeginnersintro","tracking_id":"","predictive_score":null,"relevancy_score":null,"input_features":null,"lecture_search_result":null,"curriculum_lectures":[],"order_in_results":null,"curriculum_items":[],"headline":"A Quick and Easy Intro into Python Programming","instructor_name":null},{"_class":"course","id":24823,"title":"Java Tutorial for Complete Beginners","url":"/course/java-tutorial/","is_paid":false,"price":"Free","price_detail":null,"price_serve_tracking_id":"Bv_r6ye5RZ-Rg42Ddaccug","visible_instructors":[{"_class":"user","title":"John Purcell","name":"John","display_name":"John Purcell","job_title":"Software Development Trainer","image_50x50":"https://img-c.udemycdn.com/user/50x50/219513_a344_5.jpg","image_100x100":"https://img-c.udemycdn.com/user/100x100/219513_a344_5.jpg","initials":"JP","url":"/user/johnpurcell/"}],"image_125_H":"https://img-c.udemycdn.com/course/125_H/24823_963e_14.jpg","image_240x135":"https://img-c.udemycdn.com/course/240x135/24823_963e_14.jpg","is_practice_test_course":false,"image_480x270":"https://img-c.udemycdn.com/course/480x270/24823_963e_14.jpg","published_title":"java-tutorial","tracking_id":"","predictive_score":null,"relevancy_score":null,"input_features":null,"lecture_search_result":null,"curriculum_lectures":[],"order_in_results":null,"curriculum_items":[],"headline":"Learn to program using the Java programming language","instructor_name":null},{"_class":"course","id":53600,"title":"Useful Excel for Beginners","url":"/course/useful-excel-for-beginners/","is_paid":false,"price":"Free","price_detail":null,"price_serve_tracking_id":"5LjoIxxQQsOSP76gDoEqiA","visible_instructors":[{"_class":"user","title":"Dinesh Natarajan Mohan","name":"Dinesh","display_name":"Dinesh Natarajan Mohan","job_title":"Sharing simple but effective solutions","image_50x50":"https://img-c.udemycdn.com/user/50x50/766769_faf7_6.jpg","image_100x100":"https://img-c.udemycdn.com/user/100x100/766769_faf7_6.jpg","initials":"DN","url":"/user/indzara/"}],"image_125_H":"https://img-c.udemycdn.com/course/125_H/53600_553c_4.jpg","image_240x135":"https://img-c.udemycdn.com/course/240x135/53600_553c_4.jpg","is_practice_test_course":false,"image_480x270":"https://img-c.udemycdn.com/course/480x270/53600_553c_4.jpg","published_title":"useful-excel-for-beginners","tracking_id":"","predictive_score":null,"relevancy_score":null,"input_features":null,"lecture_search_result":null,"curriculum_lectures":[],"order_in_results":null,"curriculum_items":[],"headline":"Learn the basics of Microsoft Excel and become an effective user","instructor_name":null},{"_class":"course","id":2483442,"title":"Excel: From beginner to intermediate","url":"/course/excel-2019-beginner-to-microsoft-intermediate/","is_paid":false,"price":"Free","price_detail":null,"price_serve_tracking_id":"v-vdZvkQSc-G-QMcHFPQzw","visible_instructors":[{"_class":"user","title":"Phillip Burton","name":"Phillip","display_name":"Phillip Burton","job_title":"Best Selling Instructor - over 580,000 students so far","image_50x50":"https://img-c.udemycdn.com/user/50x50/12861544_ccc3_4.jpg","image_100x100":"https://img-c.udemycdn.com/user/100x100/12861544_ccc3_4.jpg","initials":"PB","url":"/user/aquaviola/"},{"_class":"user","title":"I Do Data Limited","name":"I Do Data","display_name":"I Do Data Limited","job_title":"Improve your skills in SQL, Office, Tableau, Power BI + more","image_50x50":"https://img-c.udemycdn.com/user/50x50/114229656_c624_2.jpg","image_100x100":"https://img-c.udemycdn.com/user/100x100/114229656_c624_2.jpg","initials":"IL","url":"/user/filecats/"}],"image_125_H":"https://img-c.udemycdn.com/course/125_H/2483442_ae27_6.jpg","image_240x135":"https://img-c.udemycdn.com/course/240x135/2483442_ae27_6.jpg","is_practice_test_course":false,"image_480x270":"https://img-c.udemycdn.com/course/480x270/2483442_ae27_6.jpg","published_title":"excel-2019-beginner-to-microsoft-intermediate","tracking_id":"","predictive_score":null,"relevancy_score":null,"input_features":null,"lecture_search_result":null,"curriculum_lectures":[],"order_in_results":null,"curriculum_items":[],"headline":"Learn the skills that Microsoft want you to know in Excel.","instructor_name":null},{"_class":"course","id":1898178,"title":"Git: Become an Expert in Git & GitHub in 4 Hours","url":"/course/git-expert-4-hours/","is_paid":false,"price":"Free","price_detail":null,"price_serve_tracking_id":"nNmVckODQvysitu5GZGEGQ","visible_instructors":[{"_class":"user","title":"VideoLab by Jad Khalili","name":"VideoLab","display_name":"VideoLab by Jad Khalili","job_title":"Instructor - 100K+ Students Worldwide","image_50x50":"https://img-c.udemycdn.com/user/50x50/16117512_51ea_3.jpg","image_100x100":"https://img-c.udemycdn.com/user/100x100/16117512_51ea_3.jpg","initials":"VB","url":"/user/jad-khalili/"}],"image_125_H":"https://img-c.udemycdn.com/course/125_H/1898178_f734.jpg","image_240x135":"https://img-c.udemycdn.com/course/240x135/1898178_f734.jpg","is_practice_test_course":false,"image_480x270":"https://img-c.udemycdn.com/course/480x270/1898178_f734.jpg","published_title":"git-expert-4-hours","tracking_id":"","predictive_score":null,"relevancy_score":null,"input_features":null,"lecture_search_result":null,"curriculum_lectures":[],"order_in_results":null,"curriculum_items":[],"headline":"Become an Expert in Git & GitHub by writing commands, learning theory, and taking quizzes. Learn Git today in 4 hours!","instructor_name":null},{"_class":"course","id":3060786,"title":"Deep Learning Prerequisites: The Numpy Stack in Python V2","url":"/course/numpy-python/","is_paid":false,"price":"Free","price_detail":null,"price_serve_tracking_id":"wGb1g90qSm6QMfSGfBv0yg","visible_instructors":[{"_class":"user","title":"Lazy Programmer Team","name":"Lazy Programmer","display_name":"Lazy Programmer Team","job_title":"Artificial Intelligence and Machine Learning Engineer","image_50x50":"https://img-c.udemycdn.com/user/50x50/75391750_5441.jpg","image_100x100":"https://img-c.udemycdn.com/user/100x100/75391750_5441.jpg","initials":"LT","url":"/user/lazy-programmer-team/"},{"_class":"user","title":"Lazy Programmer Inc.","name":"Lazy Programmer","display_name":"Lazy Programmer Inc.","job_title":"Artificial intelligence and machine learning engineer","image_50x50":"https://img-c.udemycdn.com/user/50x50/14266988_a969_9.jpg","image_100x100":"https://img-c.udemycdn.com/user/100x100/14266988_a969_9.jpg","initials":"LI","url":"/user/lazy-programmer/"}],"image_125_H":"https://img-c.udemycdn.com/course/125_H/3060786_438f_2.jpg","image_240x135":"https://img-c.udemycdn.com/course/240x135/3060786_438f_2.jpg","is_practice_test_course":false,"image_480x270":"https://img-c.udemycdn.com/course/480x270/3060786_438f_2.jpg","published_title":"numpy-python","tracking_id":"","predictive_score":null,"relevancy_score":null,"input_features":null,"lecture_search_result":null,"curriculum_lectures":[],"order_in_results":null,"curriculum_items":[],"headline":"Numpy, Scipy, Pandas, and Matplotlib: prep for deep learning, machine learning, and artificial intelligence","instructor_name":null},{"_class":"course","id":2259510,"title":"Visual Studio Code: Mejora tu velocidad para codificar","url":"/course/vscode-mejora-tu-velocidad-para-codificar/","is_paid":false,"price":"Free","price_detail":null,"price_serve_tracking_id":"jsnBjKpnR9WaDIsz538npA","visible_instructors":[{"_class":"user","title":"Fernando Herrera","name":"Fernando","display_name":"Fernando Herrera","job_title":"A Full-Stack Developer & Teacher","image_50x50":"https://img-c.udemycdn.com/user/50x50/11767934_4361_2.jpg","image_100x100":"https://img-c.udemycdn.com/user/100x100/11767934_4361_2.jpg","initials":"FH","url":"/user/550c38655ec11/"}],"image_125_H":"https://img-c.udemycdn.com/course/125_H/2259510_13b4_2.jpg","image_240x135":"https://img-c.udemycdn.com/course/240x135/2259510_13b4_2.jpg","is_practice_test_course":false,"image_480x270":"https://img-c.udemycdn.com/course/480x270/2259510_13b4_2.jpg","published_title":"vscode-mejora-tu-velocidad-para-codificar","tracking_id":"","predictive_score":null,"relevancy_score":null,"input_features":null,"lecture_search_result":null,"curriculum_lectures":[],"order_in_results":null,"curriculum_items":[],"headline":"Trucos que te harán disfrutar más tu experiencia como desarrollador y trabajar a mayor velocidad en VSCode","instructor_name":null},{"_class":"course","id":707962,"title":"Javascript Essentials","url":"/course/javascript-essentials/","is_paid":false,"price":"Free","price_detail":null,"price_serve_tracking_id":"mpRe9YTrRuS6iTzAdftbuA","visible_instructors":[{"_class":"user","title":"Lawrence Turton","name":"Lawrence","display_name":"Lawrence Turton","job_title":"Technical Instructor","image_50x50":"https://img-c.udemycdn.com/user/50x50/3410094_40e1_4.jpg","image_100x100":"https://img-c.udemycdn.com/user/100x100/3410094_40e1_4.jpg","initials":"LT","url":"/user/lawrenceturton/"}],"image_125_H":"https://img-c.udemycdn.com/course/125_H/707962_71f5_4.jpg","image_240x135":"https://img-c.udemycdn.com/course/240x135/707962_71f5_4.jpg","is_practice_test_course":false,"image_480x270":"https://img-c.udemycdn.com/course/480x270/707962_71f5_4.jpg","published_title":"javascript-essentials","tracking_id":"","predictive_score":null,"relevancy_score":null,"input_features":null,"lecture_search_result":null,"curriculum_lectures":[],"order_in_results":null,"curriculum_items":[],"headline":"Learn how Javascript works, some basic API's and finally create a mini project.","instructor_name":null},{"_class":"course","id":838602,"title":"AWS Certified Solutions Architect Associate Introduction","url":"/course/aws-certified-solutions-architect-associate-in-30-days/","is_paid":false,"price":"Free","price_detail":null,"price_serve_tracking_id":"hLC38XnnQJ2XoYHhYD60eg","visible_instructors":[{"_class":"user","title":"Premraj Jeyaprakash","name":"Premraj","display_name":"Premraj Jeyaprakash","job_title":"Specializing in DevOps and CI/CD Automation Frameworks","image_50x50":"https://img-c.udemycdn.com/user/50x50/22370754_b54c_2.jpg","image_100x100":"https://img-c.udemycdn.com/user/100x100/22370754_b54c_2.jpg","initials":"PJ","url":"/user/premraj-jeyaprakash/"}],"image_125_H":"https://img-c.udemycdn.com/course/125_H/838602_cf92_5.jpg","image_240x135":"https://img-c.udemycdn.com/course/240x135/838602_cf92_5.jpg","is_practice_test_course":false,"image_480x270":"https://img-c.udemycdn.com/course/480x270/838602_cf92_5.jpg","published_title":"aws-certified-solutions-architect-associate-in-30-days","tracking_id":"","predictive_score":null,"relevancy_score":null,"input_features":null,"lecture_search_result":null,"curriculum_lectures":[],"order_in_results":null,"curriculum_items":[],"headline":"Here is the proven approach that will show you how to become an AWS Certified Solutions Architect Associate in 30 Days","instructor_name":null},{"_class":"course","id":247190,"title":"C++ Tutorial for Complete Beginners","url":"/course/free-learn-c-tutorial-beginners/","is_paid":false,"price":"Free","price_detail":null,"price_serve_tracking_id":"_bt4caXFQ3yPKQSDBLeRjQ","visible_instructors":[{"_class":"user","title":"John Purcell","name":"John","display_name":"John Purcell","job_title":"Software Development Trainer","image_50x50":"https://img-c.udemycdn.com/user/50x50/219513_a344_5.jpg","image_100x100":"https://img-c.udemycdn.com/user/100x100/219513_a344_5.jpg","initials":"JP","url":"/user/johnpurcell/"}],"image_125_H":"https://img-c.udemycdn.com/course/125_H/247190_5cb0_2.jpg","image_240x135":"https://img-c.udemycdn.com/course/240x135/247190_5cb0_2.jpg","is_practice_test_course":false,"image_480x270":"https://img-c.udemycdn.com/course/480x270/247190_5cb0_2.jpg","published_title":"free-learn-c-tutorial-beginners","tracking_id":"","predictive_score":null,"relevancy_score":null,"input_features":null,"lecture_search_result":null,"curriculum_lectures":[],"order_in_results":null,"curriculum_items":[],"headline":"How to program in the popular (and tricky!) C++ programming language, for complete beginners.","instructor_name":null}],"aggregations":[{"id":"price","title":"Price","options":[{"key":"price","title":"Paid","count":10000,"value":"price-paid"},{"key":"price","title":"Free","count":10000,"value":"price-free"}]},{"id":"instructional_level","title":"Level","options":[{"key":"instructional_level","title":"All Levels","count":10000,"value":"all"},{"key":"instructional_level","title":"Beginner","count":10000,"value":"beginner"},{"key":"instructional_level","title":"Intermediate","count":10000,"value":"intermediate"},{"key":"instructional_level","title":"Expert","count":4299,"value":"expert"}]},{"id":"features","title":"Features","options":[{"key":"has_closed_caption","title":"Captions","count":10000,"value":"true"},{"key":"has_simple_quiz","title":"Quizzes","count":10000,"value":"true"},{"key":"has_coding_exercises","title":"Coding Exercises","count":892,"value":"true"}]},{"id":"language","title":"Language","options":[{"key":"language","title":"English","count":10000,"value":"en"},{"key":"language","title":"Português","count":10000,"value":"pt"},{"key":"language","title":"Español","count":10000,"value":"es"},{"key":"language","title":"Türkçe","count":8275,"value":"tr"},{"key":"language","title":"日本語","count":7171,"value":"ja"},{"key":"language","title":"Deutsch","count":6100,"value":"de"},{"key":"language","title":"Français","count":5498,"value":"fr"},{"key":"language","title":"العربية","count":4862,"value":"ar"},{"key":"language","title":"Italiano","count":3669,"value":"it"},{"key":"language","title":"Русский","count":2315,"value":"ru"},{"key":"language","title":"한국어","count":2110,"value":"ko"},{"key":"language","title":"中文","count":1910,"value":"zh"},{"key":"language","title":"Bahasa Indonesia","count":1560,"value":"id"},{"key":"language","title":"हिन्दी","count":1554,"value":"hi"},{"key":"language","title":"Polski","count":1509,"value":"pl"},{"key":"language","title":"اردو","count":416,"value":"ur"},{"key":"language","title":"ภาษาไทย","count":323,"value":"th"},{"key":"language","title":"Română","count":288,"value":"ro"},{"key":"language","title":"தமிழ்","count":232,"value":"ta"},{"key":"language","title":"Nederlands","count":202,"value":"nl"},{"key":"language","title":"Tiếng Việt","count":165,"value":"vi"},{"key":"language","title":"‏עברית‏","count":124,"value":"he"},{"key":"language","title":"Ελληνικά","count":80,"value":"el"},{"key":"language","title":"Bangla","count":78,"value":"bn"},{"key":"language","title":"Magyar","count":75,"value":"hu"},{"key":"language","title":"Azərbaycan dili","count":67,"value":"az"},{"key":"language","title":"Telugu","count":62,"value":"te"},{"key":"language","title":"मराठी","count":48,"value":"mr"},{"key":"language","title":"Українська","count":48,"value":"uk"},{"key":"language","title":"فارسی","count":41,"value":"fa"},{"key":"language","title":"Malayāḷam","count":41,"value":"ml"},{"key":"language","title":"Hrvatski","count":28,"value":"hr"},{"key":"language","title":"Afrikaans","count":24,"value":"af"},{"key":"language","title":"မြန်မာဘာသာ","count":23,"value":"my"},{"key":"language","title":"Български","count":19,"value":"bg"},{"key":"language","title":"ગુજરાતી","count":17,"value":"gu"},{"key":"language","title":"Norsk","count":16,"value":"nb"},{"key":"language","title":"Čeština","count":15,"value":"cs"},{"key":"language","title":"Svenska","count":15,"value":"sv"},{"key":"language","title":"Filipino","count":15,"value":"tl"},{"key":"language","title":"Suomi","count":12,"value":"fi"},{"key":"language","title":"Soomaaliga","count":12,"value":"so"},{"key":"language","title":"Српски","count":12,"value":"sr"},{"key":"language","title":"Bahasa Melayu","count":11,"value":"ms"},{"key":"language","title":"Shqip","count":10,"value":"sq"},{"key":"language","title":"ქართული","count":9,"value":"ka"},{"key":"language","title":"Kannaḍa","count":9,"value":"kn"},{"key":"language","title":"Latviešu","count":9,"value":"lv"},{"key":"language","title":"Eesti","count":7,"value":"et"},{"key":"language","title":"Dansk","count":6,"value":"da"},{"key":"language","title":"Gaeilge","count":6,"value":"ga"},{"key":"language","title":"Lietuvių","count":6,"value":"lt"},{"key":"language","title":"Kiswahili","count":6,"value":"sw"},{"key":"language","title":"O'zbek","count":6,"value":"uz"},{"key":"language","title":"Қазақша","count":5,"value":"kk"},{"key":"language","title":"Kurdî","count":5,"value":"ku"},{"key":"language","title":"नेपाली","count":5,"value":"ne"},{"key":"language","title":"ਪੰਜਾਬੀ","count":5,"value":"pa"},{"key":"language","title":"پښتو","count":5,"value":"ps"},{"key":"language","title":"Slovenčina","count":5,"value":"sk"},{"key":"language","title":"Català","count":4,"value":"ca"},{"key":"language","title":"Монгол","count":4,"value":"mn"},{"key":"language","title":"Slovenščina","count":4,"value":"sl"},{"key":"language","title":"Ayisyen","count":3,"value":"ht"},{"key":"language","title":"Khmer","count":3,"value":"km"},{"key":"language","title":"Avañe'ẽ","count":2,"value":"gn"},{"key":"language","title":"Qhichwa","count":2,"value":"qu"},{"key":"language","title":"Aymar aru","count":1,"value":"ay"},{"key":"language","title":"Føroyskt","count":1,"value":"fo"},{"key":"language","title":"Frysk","count":1,"value":"fy"},{"key":"language","title":"Հայերեն","count":1,"value":"hy"},{"key":"language","title":"Македонски","count":1,"value":"mk"},{"key":"language","title":"тоҷикӣ, تاجیکی‎, tojikī","count":1,"value":"tg"},{"key":"language","title":"isiXhosa","count":1,"value":"xh"}]},{"id":"ratings","title":"Ratings","options":[{"key":"ratings","title":"4.5 & up","count":10000,"value":"4.5"},{"key":"ratings","title":"4.0 & up","count":10000,"value":"4.0"},{"key":"ratings","title":"3.5 & up","count":10000,"value":"3.5"},{"key":"ratings","title":"3.0 & up","count":10000,"value":"3.0"}]},{"id":"duration","title":"Duration","options":[{"key":"duration","title":"0-1 Hour","count":10000,"value":"extraShort"},{"key":"duration","title":"1-3 Hours","count":10000,"value":"short"},{"key":"duration","title":"3-6 Hours","count":10000,"value":"medium"},{"key":"duration","title":"6-17 Hours","count":10000,"value":"long"},{"key":"duration","title":"17+ Hours","count":9514,"value":"extraLong"}]}]}